…
``` r
prof_trash_wheel <- read_excel("202207 Trash Wheel Collection Data.xlsx",sheet = 2) %>% janitor::clean_names()%>%mutate(year = as.character(year)) %>% mutate(month = as.character(month))

prof_trash_wheel$homes_powered <- prof_trash_wheel$weight_tons*500/30
view(prof_trash_wheel)
```

``` r
gwynnda <- read_excel("202207 Trash Wheel Collection Data.xlsx",sheet = 4) %>% janitor::clean_names()%>%mutate(year = as.character(year)) %>% mutate(month = as.character(month))
gwynnda$homes_powered <- gwynnda$weight_tons*500/30
gwynnda%>%na.omit()
```

    ## # A tibble: 106 × 11
    ##    dumpster month  year  date                weight_tons volume_cubic_yards
    ##       <dbl> <chr>  <chr> <dttm>                    <dbl>              <dbl>
    ##  1        1 July   2021  2021-07-03 00:00:00        0.93                 15
    ##  2        2 July   2021  2021-07-07 00:00:00        2.26                 15
    ##  3        3 July   2021  2021-07-07 00:00:00        1.62                 15
    ##  4        4 July   2021  2021-07-16 00:00:00        1.76                 15
    ##  5        5 July   2021  2021-07-30 00:00:00        1.53                 15
    ##  6        6 August 2021  2021-08-11 00:00:00        2.06                 15
    ##  7        7 August 2021  2021-08-14 00:00:00        1.9                  15
    ##  8        8 August 2021  2021-08-16 00:00:00        2.16                 15
    ##  9        9 August 2021  2021-08-16 00:00:00        2.6                  15
    ## 10       10 August 2021  2021-08-17 00:00:00        3.21                 15
    ## # ℹ 96 more rows
    ## # ℹ 5 more variables: plastic_bottles <dbl>, polystyrene <dbl>,
    ## #   cigarette_butts <dbl>, plastic_bags <dbl>, homes_powered <dbl>
…
